lab_02_projeto_hierarquico/simulation/qsim/paridade_herarquico.msim.vcd
$comment
	File created using the following command:
		vcd file paridade_herarquico.msim.vcd -direction
$end
$date
	Fri Jul 08 10:26:29 2022
$end
$version
	ModelSim Version 10.1d
$end
$timescale
	1ps
$end
$scope module paridade_herarquico_vlg_vec_tst $end
$var reg 1 ! x1 $end
$var reg 1 " x2 $end
$var reg 1 # x3 $end
$var wire 1 $ p $end
$var wire 1 % sampler $end
$scope module i1 $end
$var wire 1 & gnd $end
$var wire 1 ' vcc $end
$var wire 1 ( unknown $end
$var tri1 1 ) devclrn $end
$var tri1 1 * devpor $end
$var tri1 1 + devoe $end
$var wire 1 , x3~combout $end
$var wire 1 - x1~combout $end
$var wire 1 . x2~combout $end
$var wire 1 / inst1|f~0_combout $end
$upscope $end
$upscope $end
$enddefinitions $end
#0
$dumpvars
0!
0"
0#
x$
x%
0&
1'
x(
1)
1*
1+
0,
0-
0.
x/
$end
#5353
0/
#8934
0$
#50000
1#
0%
#50864
1,
#56211
1/
#59792
1$
#100000
1"
0#
1%
#100844
1.
#100864
0,
#150000
1#
0%
#150864
1,
#156211
0/
#159792
0$
#200000
1!
0"
0#
1%
#200844
0.
1-
#200864
0,
#206197
1/
#209778
1$
#250000
1#
0%
#250864
1,
#256211
0/
#259792
0$
#300000
1"
0#
1%
#300844
1.
#300864
0,
#350000
1#
0%
#350864
1,
#356211
1/
#359792
1$
